%YAML 1.1
%TAG !u! tag:unity3d.com,2011:
--- !u!114 &11400000
MonoBehaviour:
  m_ObjectHideFlags: 0
  m_CorrespondingSourceObject: {fileID: 0}
  m_PrefabInternal: {fileID: 0}
  m_GameObject: {fileID: 0}
  m_Enabled: 1
  m_EditorHideFlags: 0
  m_Script: {fileID: 11500000, guid: 998934a414496414dbe99b1062c6a813, type: 3}
  m_Name: Hard
  m_EditorClassIdentifier: 
  goal: 0
  goalLimit: 1
  useTimer: 1
  mapName: Hard
  nrOfColors: 5
  hasBombs: 1
  hasClocks: 1
  singleColorSpawnRate: 50
  dualColorSpawnRate: 25
  tripleColorSpawnRate: 0
  quadColorSpawnRate: 25
  mapHeight: 5
  mapWidth: 5
  fieldData: 01000000010000000100000001000000010000000100000001000000010000000100000001000000010000000100000001000000010000000100000001000000010000000100000001000000010000000100000001000000010000000100000001000000
  nextMap: {fileID: 0}
