%YAML 1.1
%TAG !u! tag:unity3d.com,2011:
--- !u!114 &11400000
MonoBehaviour:
  m_ObjectHideFlags: 0
  m_CorrespondingSourceObject: {fileID: 0}
  m_PrefabInternal: {fileID: 0}
  m_GameObject: {fileID: 0}
  m_Enabled: 1
  m_EditorHideFlags: 0
  m_Script: {fileID: 11500000, guid: 998934a414496414dbe99b1062c6a813, type: 3}
  m_Name: Tutorial4
  m_EditorClassIdentifier: 
  goal: 3
  goalLimit: 3
  useTimer: 0
  mapName: Tutorial 4
  nrOfColors: 2
  hasBombs: 0
  hasClocks: 0
  singleColorSpawnRate: 100
  dualColorSpawnRate: 0
  tripleColorSpawnRate: 0
  quadColorSpawnRate: 0
  mapHeight: 3
  mapWidth: 4
  fieldData: 020000000200000002000000020000000000000000000000000000000200000002000000020000000200000002000000
  nextMap: {fileID: 11400000, guid: 8046322f1307bba4a888755594cbe61b, type: 2}
